{
  "bail": 1,
  "verbose": true,
  "preset": "ts-jest",
  "testEnvironment": "jsdom",
  "setupFiles": ["<rootDir>/jest-shim.js"],
  "setupFilesAfterEnv": [
    "@testing-library/jest-dom",
    "@testing-library/jest-dom/extend-expect"
  ],
  "transform": {
    "^.+\\.(ts|tsx)$": "ts-jest"
  },
  "transformIgnorePatterns": ["<rootDir>/node_modules/"]
}
